<?xml version="1.0" encoding="UTF-8"?>
<svg height="16px" viewBox="0 0 16 16" width="16px" xmlns="http://www.w3.org/2000/svg">
    <g fill="#241f31">
        <path d="m 3 6 c -1.089844 0 -2 0.910156 -2 2 v 5 c 0 1.089844 0.910156 2 2 2 h 10 c 1.089844 0 2 -0.910156 2 -2 v -5 c 0 -1.089844 -0.910156 -2 -2 -2 z m 0 2 h 10 v 5 h -10 z m 0 0"/>
        <path d="m 6.492188 9 c -0.550782 0 -1 0.449219 -1 1 s 0.449218 1 1 1 h 3.015624 c 0.550782 0 1 -0.449219 1 -1 s -0.449218 -1 -1 -1 z m 0 0"/>
        <path d="m 4 2 c -1.09375 0 -2 0.90625 -2 2 v 3 c 0 0.550781 0.449219 1 1 1 s 1 -0.449219 1 -1 v -3 h 3 v 3 c 0 0.550781 0.449219 1 1 1 s 1 -0.449219 1 -1 v -3 c 0 -1.09375 -0.90625 -2 -2 -2 z m 0 0"/>
        <path d="m 9 0 c -0.550781 0 -1 0.449219 -1 1 s 0.449219 1 1 1 h 1 v 1 c 0 1.09375 0.90625 2 2 2 v 2 c 0 0.550781 0.449219 1 1 1 s 1 -0.449219 1 -1 v -2 c 0 -1.09375 -0.90625 -2 -2 -2 v -1 c 0 -1.09375 -0.90625 -2 -2 -2 z m 0 0"/>
    </g>
</svg>
