<?xml version="1.0" encoding="UTF-8" standalone="no"?>
<!-- Created with Inkscape (http://www.inkscape.org/) -->

<svg
   inkscape:export-ydpi="96"
   inkscape:export-xdpi="96"
   inkscape:export-filename="Template.png"
   width="192"
   height="152"
   id="svg11300"
   sodipodi:version="0.32"
   inkscape:version="1.3.2 (091e20ef0f, 2023-11-25)"
   sodipodi:docname="garden.turtle.Stockpile.Source.svg"
   inkscape:output_extension="org.inkscape.output.svg.inkscape"
   version="1.0"
   style="display:inline;enable-background:new"
   viewBox="0 0 192 152"
   xmlns:inkscape="http://www.inkscape.org/namespaces/inkscape"
   xmlns:sodipodi="http://sodipodi.sourceforge.net/DTD/sodipodi-0.dtd"
   xmlns:xlink="http://www.w3.org/1999/xlink"
   xmlns="http://www.w3.org/2000/svg"
   xmlns:svg="http://www.w3.org/2000/svg"
   xmlns:rdf="http://www.w3.org/1999/02/22-rdf-syntax-ns#"
   xmlns:cc="http://creativecommons.org/ns#"
   xmlns:dc="http://purl.org/dc/elements/1.1/">
  <title
     id="title4162">Adwaita Icon Template</title>
  <defs
     id="defs3">
    <linearGradient
       id="linearGradient44"
       inkscape:collect="always">
      <stop
         style="stop-color:#e04635;stop-opacity:1;"
         offset="0"
         id="stop44" />
      <stop
         style="stop-color:#e83b2a;stop-opacity:1;"
         offset="1"
         id="stop45" />
    </linearGradient>
    <linearGradient
       id="linearGradient43"
       gradientUnits="userSpaceOnUse">
      <stop
         offset="0"
         stop-color="#9a9996"
         id="stop22" />
      <stop
         offset="0.268322"
         stop-color="#c0bfbc"
         id="stop23" />
      <stop
         offset="1"
         stop-color="#77767b"
         id="stop43"
         style="stop-color:#79787c;stop-opacity:1;" />
    </linearGradient>
    <linearGradient
       id="linearGradient15"
       inkscape:collect="always">
      <stop
         style="stop-color:#d5b8a1;stop-opacity:1;"
         offset="0"
         id="stop15" />
      <stop
         style="stop-color:#b38154;stop-opacity:1;"
         offset="1"
         id="stop21" />
    </linearGradient>
    <linearGradient
       id="linearGradient1"
       inkscape:collect="always">
      <stop
         style="stop-color:#000000;stop-opacity:0.1444056;"
         offset="0"
         id="stop13" />
      <stop
         style="stop-color:#000000;stop-opacity:0;"
         offset="1"
         id="stop14" />
    </linearGradient>
    <linearGradient
       y2="236"
       x2="96"
       y1="236"
       x1="32"
       gradientTransform="translate(604.81684,170.58641)"
       gradientUnits="userSpaceOnUse"
       id="linearGradient1099"
       xlink:href="#linearGradient1036" />
    <linearGradient
       id="linearGradient1036">
      <stop
         id="stop1032"
         offset="0"
         style="stop-color:#d5d3cf;stop-opacity:1;" />
      <stop
         id="stop1034"
         offset="1"
         style="stop-color:#f6f5f4;stop-opacity:1" />
    </linearGradient>
    <radialGradient
       r="32"
       fy="-76"
       fx="-244"
       cy="-76"
       cx="-244"
       gradientTransform="matrix(0.88333331,0,0,0.88333331,-460.35018,463.11973)"
       gradientUnits="userSpaceOnUse"
       id="radialGradient1103"
       xlink:href="#linearGradient1069" />
    <linearGradient
       id="linearGradient1069">
      <stop
         id="stop1065"
         offset="0"
         style="stop-color:#d5d3cf;stop-opacity:1" />
      <stop
         id="stop1067-1"
         offset="1"
         style="stop-color:#949390;stop-opacity:1" />
    </linearGradient>
    <linearGradient
       gradientUnits="userSpaceOnUse"
       y2="232"
       x2="64"
       y1="262.5"
       x1="64"
       id="linearGradient1027"
       xlink:href="#linearGradient1025"
       gradientTransform="translate(-470.5864,432.81685)" />
    <linearGradient
       id="linearGradient1025">
      <stop
         id="stop1021"
         offset="0"
         style="stop-color:#9a9996;stop-opacity:1" />
      <stop
         id="stop1023"
         offset="1"
         style="stop-color:#77767b;stop-opacity:1" />
    </linearGradient>
    <inkscape:path-effect
       effect="spiro"
       id="path-effect35304-9"
       is_visible="true" />
    <clipPath
       clipPathUnits="userSpaceOnUse"
       id="clipPath1609-7">
      <path
         sodipodi:nodetypes="cccccc"
         inkscape:connector-curvature="0"
         id="path1611-5"
         d="m 252,116 28,-28 v -8 h -36 v 36 z"
         style="fill:#e74747;stroke:none;stroke-width:0.25px;stroke-linecap:butt;stroke-linejoin:miter;stroke-opacity:1" />
    </clipPath>
    <linearGradient
       id="linearGradient1697">
      <stop
         id="stop1685"
         offset="0"
         style="stop-color:#deddda;stop-opacity:1" />
      <stop
         style="stop-color:#eeeeec;stop-opacity:1"
         offset="0.04545455"
         id="stop1687" />
      <stop
         id="stop1689"
         offset="0.09090909"
         style="stop-color:#deddda;stop-opacity:1" />
      <stop
         style="stop-color:#deddda;stop-opacity:1"
         offset="0.90909094"
         id="stop1691" />
      <stop
         id="stop1693"
         offset="0.95454544"
         style="stop-color:#eeeeec;stop-opacity:1" />
      <stop
         id="stop1695"
         offset="1"
         style="stop-color:#c0bfbc;stop-opacity:1" />
    </linearGradient>
    <clipPath
       clipPathUnits="userSpaceOnUse"
       id="clipPath1289">
      <path
         style="display:inline;opacity:1;vector-effect:none;fill:none;fill-opacity:1;stroke:#000000;stroke-width:4;stroke-linecap:round;stroke-linejoin:round;stroke-miterlimit:4;stroke-dasharray:none;stroke-dashoffset:0;stroke-opacity:1;marker:none;marker-start:none;marker-mid:none;marker-end:none;paint-order:normal;enable-background:new"
         d="m 64,-148 h 64 l 64,-64 64,64 h 192 c 17.728,0 32,14.272 32,32 v 288 c 0,17.728 -14.272,32 -32,32 H 256 l -64,-64 -64,64 H 64 C 46.272,204 32,189.728 32,172 v -288 c 0,-17.728 14.408898,-34.19889 32,-32 z"
         id="path1291"
         inkscape:connector-curvature="0"
         sodipodi:nodetypes="scccsssscccssss" />
    </clipPath>
    <linearGradient
       id="paint3_linear-2-6-5"
       x2="1"
       gradientUnits="userSpaceOnUse"
       gradientTransform="matrix(0,6,-12,0,-64,209.99687)">
      <stop
         stop-color="#C01C27"
         id="stop91-0-7-4" />
      <stop
         offset="1"
         stop-color="#E01B24"
         id="stop93-2-5-7" />
    </linearGradient>
    <clipPath
       clipPathUnits="userSpaceOnUse"
       id="clipPath1609">
      <path
         sodipodi:nodetypes="cccccc"
         inkscape:connector-curvature="0"
         id="path1611"
         d="m 252,116 28,-28 v -8 h -36 v 36 z"
         style="fill:#e74747;stroke:none;stroke-width:0.25px;stroke-linecap:butt;stroke-linejoin:miter;stroke-opacity:1" />
    </clipPath>
    <linearGradient
       id="b"
       gradientTransform="matrix(1,0,0,0.97561,-5e-7,6.341459)"
       x1="64"
       x2="106"
       xlink:href="#linearGradient43"
       y1="219"
       y2="219" />
    <linearGradient
       id="a"
       gradientUnits="userSpaceOnUse">
      <stop
         offset="0"
         stop-color="#9a9996"
         id="stop1" />
      <stop
         offset="0.268322"
         stop-color="#c0bfbc"
         id="stop2" />
      <stop
         offset="1"
         stop-color="#77767b"
         id="stop3" />
    </linearGradient>
    <linearGradient
       id="c"
       gradientUnits="userSpaceOnUse"
       x1="22"
       x2="64"
       y1="50.999985"
       y2="50.999985"
       gradientTransform="translate(-5e-7,172)">
      <stop
         offset="0"
         stop-color="#d2d0cd"
         id="stop4"
         style="stop-color:#c3c2bf;stop-opacity:1;" />
      <stop
         offset="0.285714"
         stop-color="#ffffff"
         id="stop5" />
      <stop
         offset="1"
         stop-color="#c9c6c1"
         id="stop6" />
    </linearGradient>
    <linearGradient
       id="e"
       x1="63.999989"
       x2="105.99999"
       xlink:href="#d"
       y1="6"
       y2="48"
       gradientTransform="translate(-5e-7,172)" />
    <linearGradient
       id="d"
       gradientUnits="userSpaceOnUse">
      <stop
         offset="0"
         stop-color="#a4a39e"
         id="stop7" />
      <stop
         offset="0.363368"
         stop-color="#dddddd"
         id="stop8" />
      <stop
         offset="1"
         stop-color="#aaa8a5"
         id="stop9" />
    </linearGradient>
    <linearGradient
       id="g"
       x1="64"
       x2="106"
       xlink:href="#f"
       y1="36.833977"
       y2="36.833977"
       gradientTransform="translate(-5e-7,172)" />
    <linearGradient
       id="f"
       gradientUnits="userSpaceOnUse">
      <stop
         offset="0"
         stop-color="#83828b"
         id="stop10" />
      <stop
         offset="0.327753"
         stop-color="#aaa9ac"
         id="stop11" />
      <stop
         offset="1"
         stop-color="#7e7b85"
         id="stop12" />
    </linearGradient>
    <linearGradient
       id="h"
       x1="64"
       x2="106"
       xlink:href="#f"
       y1="15"
       y2="15"
       gradientTransform="translate(-5e-7,172)" />
    <radialGradient
       id="i"
       cx="85"
       cy="232.59193"
       gradientTransform="matrix(-7.761905,0,0,8.195998,744.7619,-1691.2913)"
       gradientUnits="userSpaceOnUse"
       r="21">
      <stop
         offset="0"
         stop-color="#56bd95"
         id="stop16" />
      <stop
         offset="0.0742396"
         stop-color="#84ddb3"
         id="stop17" />
      <stop
         offset="0.138068"
         stop-color="#76d2aa"
         id="stop18" />
      <stop
         offset="0.358103"
         stop-color="#33a16e"
         id="stop19" />
      <stop
         offset="1"
         stop-color="#26a269"
         id="stop20" />
    </radialGradient>
    <linearGradient
       id="j"
       gradientTransform="matrix(1,0,0,1.027778,-5e-7,-8.111141)"
       x1="22"
       x2="64"
       xlink:href="#a"
       y1="256"
       y2="256" />
    <linearGradient
       id="k"
       gradientUnits="userSpaceOnUse"
       x1="20"
       x2="108"
       y1="104"
       y2="104"
       gradientTransform="translate(-5e-7,172)">
      <stop
         offset="0"
         stop-color="#9f6a3e"
         id="stop24" />
      <stop
         offset="0.0454546"
         stop-color="#c09670"
         id="stop25" />
      <stop
         offset="0.0909091"
         stop-color="#b5835a"
         id="stop26" />
      <stop
         offset="0.909091"
         stop-color="#b5835a"
         id="stop27" />
      <stop
         offset="0.954545"
         stop-color="#c09670"
         id="stop28" />
      <stop
         offset="1"
         stop-color="#9f6a3e"
         id="stop29" />
    </linearGradient>
    <linearGradient
       id="l"
       gradientUnits="userSpaceOnUse"
       x1="77.999992"
       x2="91.999992"
       y1="38"
       y2="38"
       gradientTransform="translate(-5e-7,172)">
      <stop
         offset="0"
         stop-color="#134d30"
         id="stop30" />
      <stop
         offset="0.756368"
         stop-color="#1c6b41"
         id="stop31" />
      <stop
         offset="1"
         stop-color="#134d30"
         id="stop32" />
    </linearGradient>
    <linearGradient
       id="m"
       gradientUnits="userSpaceOnUse"
       x1="80.707123"
       x2="89.292877"
       y1="25.564529"
       y2="40.435471"
       gradientTransform="translate(-5e-7,172)">
      <stop
         offset="0"
         stop-color="#1e784e"
         id="stop33" />
      <stop
         offset="1"
         stop-color="#17603e"
         id="stop34" />
    </linearGradient>
    <linearGradient
       id="n"
       gradientUnits="userSpaceOnUse"
       x1="78"
       x2="92"
       y1="36.195312"
       y2="36.195312"
       gradientTransform="translate(-5e-7,172)">
      <stop
         offset="0"
         stop-color="#ffffff"
         stop-opacity="0"
         id="stop35" />
      <stop
         offset="0.285714"
         stop-color="#ffffff"
         stop-opacity="0.035294"
         id="stop36" />
      <stop
         offset="1"
         stop-color="#ffffff"
         stop-opacity="0"
         id="stop37" />
    </linearGradient>
    <radialGradient
       id="o"
       cx="85"
       cy="232.59193"
       gradientTransform="matrix(7.761905,0,0,8.195998,-574.7619,-1720.2916)"
       gradientUnits="userSpaceOnUse"
       r="21">
      <stop
         offset="0"
         stop-color="#399370"
         id="stop38" />
      <stop
         offset="0.0742396"
         stop-color="#37c583"
         id="stop39" />
      <stop
         offset="0.138068"
         stop-color="#76d2aa"
         id="stop40" />
      <stop
         offset="0.358103"
         stop-color="#33a16e"
         id="stop41" />
      <stop
         offset="1"
         stop-color="#26a269"
         id="stop42" />
    </radialGradient>
    <linearGradient
       id="p"
       x1="21.99999"
       x2="63.999992"
       xlink:href="#d"
       y1="46"
       y2="88"
       gradientTransform="translate(-5e-7,172)" />
    <linearGradient
       id="q"
       x1="22"
       x2="64"
       xlink:href="#f"
       y1="76.833977"
       y2="76.833977"
       gradientTransform="translate(-5e-7,172)" />
    <linearGradient
       id="r"
       x1="22"
       x2="64"
       xlink:href="#f"
       y1="55"
       y2="55"
       gradientTransform="translate(-5e-7,172)" />
    <clipPath
       id="s">
      <path
         d="m 42,22 h 2 v 22 h -2 z m 0,0"
         id="path36" />
    </clipPath>
    <clipPath
       id="t">
      <path
         d="m 43,4 c 9.390625,0 17,7.613281 17,17 v 6 C 60,36.390625 52.390625,44 43,44 33.609375,44 26,36.390625 26,27 V 21 C 26,11.613281 33.609375,4 43,4 Z m 0,0"
         id="path37" />
    </clipPath>
    <clipPath
       id="u">
      <path
         d="m 46,22 h 2 v 22 h -2 z m 0,0"
         id="path38" />
    </clipPath>
    <clipPath
       id="v">
      <path
         d="m 43,4 c 9.390625,0 17,7.613281 17,17 v 6 C 60,36.390625 52.390625,44 43,44 33.609375,44 26,36.390625 26,27 V 21 C 26,11.613281 33.609375,4 43,4 Z m 0,0"
         id="path39" />
    </clipPath>
    <clipPath
       id="w">
      <path
         d="m 50,22 h 2 v 22 h -2 z m 0,0"
         id="path40" />
    </clipPath>
    <clipPath
       id="x">
      <path
         d="m 43,4 c 9.390625,0 17,7.613281 17,17 v 6 C 60,36.390625 52.390625,44 43,44 33.609375,44 26,36.390625 26,27 V 21 C 26,11.613281 33.609375,4 43,4 Z m 0,0"
         id="path41" />
    </clipPath>
    <clipPath
       id="y">
      <path
         d="m 54,22 h 2 v 22 h -2 z m 0,0"
         id="path42" />
    </clipPath>
    <clipPath
       id="z">
      <path
         d="m 43,4 c 9.390625,0 17,7.613281 17,17 v 6 C 60,36.390625 52.390625,44 43,44 33.609375,44 26,36.390625 26,27 V 21 C 26,11.613281 33.609375,4 43,4 Z m 0,0"
         id="path43" />
    </clipPath>
    <clipPath
       id="A">
      <path
         d="m 58,22 h 2 v 22 h -2 z m 0,0"
         id="path44" />
    </clipPath>
    <clipPath
       id="B">
      <path
         d="m 43,4 c 9.390625,0 17,7.613281 17,17 v 6 C 60,36.390625 52.390625,44 43,44 33.609375,44 26,36.390625 26,27 V 21 C 26,11.613281 33.609375,4 43,4 Z m 0,0"
         id="path45" />
    </clipPath>
    <clipPath
       id="C">
      <path
         d="m 26,22 h 2 v 22 h -2 z m 0,0"
         id="path46" />
    </clipPath>
    <clipPath
       id="D">
      <path
         d="m 43,4 c 9.390625,0 17,7.613281 17,17 v 6 C 60,36.390625 52.390625,44 43,44 33.609375,44 26,36.390625 26,27 V 21 C 26,11.613281 33.609375,4 43,4 Z m 0,0"
         id="path47" />
    </clipPath>
    <clipPath
       id="E">
      <path
         d="m 30,22 h 2 v 22 h -2 z m 0,0"
         id="path48" />
    </clipPath>
    <clipPath
       id="F">
      <path
         d="m 43,4 c 9.390625,0 17,7.613281 17,17 v 6 C 60,36.390625 52.390625,44 43,44 33.609375,44 26,36.390625 26,27 V 21 C 26,11.613281 33.609375,4 43,4 Z m 0,0"
         id="path49" />
    </clipPath>
    <clipPath
       id="G">
      <path
         d="m 34,22 h 2 v 22 h -2 z m 0,0"
         id="path50" />
    </clipPath>
    <clipPath
       id="H">
      <path
         d="m 43,4 c 9.390625,0 17,7.613281 17,17 v 6 C 60,36.390625 52.390625,44 43,44 33.609375,44 26,36.390625 26,27 V 21 C 26,11.613281 33.609375,4 43,4 Z m 0,0"
         id="path51" />
    </clipPath>
    <clipPath
       id="I">
      <path
         d="m 38,22 h 2 v 22 h -2 z m 0,0"
         id="path52" />
    </clipPath>
    <clipPath
       id="J">
      <path
         d="m 43,4 c 9.390625,0 17,7.613281 17,17 v 6 C 60,36.390625 52.390625,44 43,44 33.609375,44 26,36.390625 26,27 V 21 C 26,11.613281 33.609375,4 43,4 Z m 0,0"
         id="path53" />
    </clipPath>
    <linearGradient
       id="K"
       gradientUnits="userSpaceOnUse"
       x1="25.999998"
       x2="60"
       y1="4.0005488"
       y2="38.000549"
       gradientTransform="translate(-5e-7,172)">
      <stop
         offset="0"
         stop-color="#f5513f"
         id="stop53" />
      <stop
         offset="0.387301"
         stop-color="#fa7064"
         id="stop54" />
      <stop
         offset="1"
         stop-color="#f64e3a"
         id="stop55" />
    </linearGradient>
    <linearGradient
       inkscape:collect="always"
       xlink:href="#linearGradient1"
       id="linearGradient14"
       x1="64"
       y1="265.99988"
       x2="63.999996"
       y2="252"
       gradientUnits="userSpaceOnUse"
       gradientTransform="matrix(1,0,0,1.5714285,0,-152)" />
    <linearGradient
       inkscape:collect="always"
       xlink:href="#linearGradient15"
       id="linearGradient21"
       x1="64.000008"
       y1="268.71103"
       x2="64.000008"
       y2="204"
       gradientUnits="userSpaceOnUse" />
    <linearGradient
       inkscape:collect="always"
       xlink:href="#linearGradient44"
       id="linearGradient45"
       x1="22"
       y1="225.5"
       x2="64"
       y2="225.5"
       gradientUnits="userSpaceOnUse" />
  </defs>
  <sodipodi:namedview
     stroke="#ef2929"
     fill="#f57900"
     id="base"
     pagecolor="#ffffff"
     bordercolor="#666666"
     borderopacity="0.25490196"
     inkscape:pageopacity="0.0"
     inkscape:pageshadow="2"
     inkscape:zoom="1"
     inkscape:cx="-297"
     inkscape:cy="-145.5"
     inkscape:current-layer="layer1"
     showgrid="false"
     inkscape:grid-bbox="true"
     inkscape:document-units="px"
     inkscape:showpageshadow="false"
     inkscape:window-width="1920"
     inkscape:window-height="1016"
     inkscape:window-x="0"
     inkscape:window-y="27"
     width="400px"
     height="300px"
     inkscape:snap-nodes="true"
     inkscape:snap-bbox="true"
     objecttolerance="7"
     gridtolerance="12"
     guidetolerance="13"
     inkscape:window-maximized="1"
     inkscape:pagecheckerboard="false"
     showguides="false"
     inkscape:guide-bbox="true"
     inkscape:locked="false"
     inkscape:measure-start="0,0"
     inkscape:measure-end="0,0"
     inkscape:object-nodes="true"
     inkscape:bbox-nodes="true"
     inkscape:snap-global="true"
     inkscape:object-paths="true"
     inkscape:snap-intersection-paths="true"
     inkscape:snap-bbox-edge-midpoints="true"
     inkscape:snap-bbox-midpoints="true"
     showborder="true"
     inkscape:snap-center="true"
     inkscape:snap-object-midpoints="true"
     inkscape:snap-midpoints="true"
     inkscape:snap-smooth-nodes="true"
     inkscape:snap-text-baseline="true"
     borderlayer="true"
     inkscape:deskcolor="#d1d1d1">
    <inkscape:grid
       type="xygrid"
       id="grid5883"
       spacingx="2"
       spacingy="2"
       enabled="true"
       visible="false"
       empspacing="4"
       originx="8"
       originy="8"
       units="px" />
    <sodipodi:guide
       position="72,16"
       orientation="0,1"
       id="guide1073"
       inkscape:locked="false"
       inkscape:label=""
       inkscape:color="rgb(0,0,255)" />
    <sodipodi:guide
       position="20,72"
       orientation="1,0"
       id="guide1075"
       inkscape:locked="false"
       inkscape:label=""
       inkscape:color="rgb(0,0,255)" />
    <sodipodi:guide
       position="72,112"
       orientation="0,1"
       id="guide1099"
       inkscape:locked="false"
       inkscape:label=""
       inkscape:color="rgb(0,0,255)" />
    <sodipodi:guide
       position="72,136"
       orientation="0,1"
       id="guide993"
       inkscape:locked="false"
       inkscape:label=""
       inkscape:color="rgb(0,0,255)" />
    <sodipodi:guide
       position="112,72"
       orientation="1,0"
       id="guide995"
       inkscape:locked="false"
       inkscape:label=""
       inkscape:color="rgb(0,0,255)" />
    <sodipodi:guide
       position="8.0000001,72"
       orientation="1,0"
       id="guide867"
       inkscape:locked="false"
       inkscape:label=""
       inkscape:color="rgb(0,0,255)" />
    <sodipodi:guide
       position="128,72"
       orientation="1,0"
       id="guide869"
       inkscape:locked="false"
       inkscape:label=""
       inkscape:color="rgb(0,0,255)" />
    <sodipodi:guide
       position="72,124"
       orientation="0,1"
       id="guide871"
       inkscape:locked="false"
       inkscape:label=""
       inkscape:color="rgb(0,0,255)" />
    <inkscape:grid
       type="xygrid"
       id="grid873"
       spacingx="1"
       spacingy="1"
       empspacing="8"
       color="#000000"
       opacity="0.49019608"
       empcolor="#000000"
       empopacity="0.08627451"
       dotted="true"
       originx="8"
       originy="8"
       units="px"
       visible="false" />
    <sodipodi:guide
       position="32,72"
       orientation="1,0"
       id="guide877"
       inkscape:locked="false"
       inkscape:label=""
       inkscape:color="rgb(0,0,255)" />
    <sodipodi:guide
       position="124,72"
       orientation="1,0"
       id="guide879"
       inkscape:locked="false"
       inkscape:label=""
       inkscape:color="rgb(0,0,255)" />
    <sodipodi:guide
       position="72,128"
       orientation="0,1"
       id="guide881"
       inkscape:locked="false"
       inkscape:label=""
       inkscape:color="rgb(0,0,255)" />
    <sodipodi:guide
       position="72,20"
       orientation="0,1"
       id="guide883"
       inkscape:locked="false"
       inkscape:label=""
       inkscape:color="rgb(0,0,255)" />
    <sodipodi:guide
       position="16,72"
       orientation="1,0"
       id="guide885"
       inkscape:locked="false"
       inkscape:label=""
       inkscape:color="rgb(0,0,255)" />
    <sodipodi:guide
       position="136,72"
       orientation="1,0"
       id="guide887"
       inkscape:locked="false"
       inkscape:label=""
       inkscape:color="rgb(0,0,255)" />
    <sodipodi:guide
       position="72,8"
       orientation="0,1"
       id="guide897"
       inkscape:locked="false"
       inkscape:label=""
       inkscape:color="rgb(0,0,255)" />
    <sodipodi:guide
       position="72,32"
       orientation="0,1"
       id="guide899"
       inkscape:locked="false"
       inkscape:label=""
       inkscape:color="rgb(0,0,255)" />
    <sodipodi:guide
       position="264,264"
       orientation="-0.70710678,0.70710678"
       id="guide950"
       inkscape:locked="false"
       inkscape:label=""
       inkscape:color="rgb(0,0,255)" />
    <sodipodi:guide
       position="72,72"
       orientation="0.70710678,0.70710678"
       id="guide952"
       inkscape:locked="false"
       inkscape:label=""
       inkscape:color="rgb(0,0,255)" />
  </sodipodi:namedview>
  <metadata
     id="metadata4">
    <rdf:RDF>
      <cc:Work
         rdf:about="">
        <dc:format>image/svg+xml</dc:format>
        <dc:type
           rdf:resource="http://purl.org/dc/dcmitype/StillImage" />
        <dc:creator>
          <cc:Agent>
            <dc:title>GNOME Design Team</dc:title>
          </cc:Agent>
        </dc:creator>
        <dc:source />
        <cc:license
           rdf:resource="http://creativecommons.org/licenses/by-sa/4.0/" />
        <dc:title>Adwaita Icon Template</dc:title>
        <dc:subject>
          <rdf:Bag />
        </dc:subject>
        <dc:date />
        <dc:rights>
          <cc:Agent>
            <dc:title />
          </cc:Agent>
        </dc:rights>
        <dc:publisher>
          <cc:Agent>
            <dc:title />
          </cc:Agent>
        </dc:publisher>
        <dc:identifier />
        <dc:relation />
        <dc:language />
        <dc:coverage />
        <dc:description />
        <dc:contributor>
          <cc:Agent>
            <dc:title />
          </cc:Agent>
        </dc:contributor>
      </cc:Work>
      <cc:License
         rdf:about="http://creativecommons.org/licenses/by-sa/4.0/">
        <cc:permits
           rdf:resource="http://creativecommons.org/ns#Reproduction" />
        <cc:permits
           rdf:resource="http://creativecommons.org/ns#Distribution" />
        <cc:requires
           rdf:resource="http://creativecommons.org/ns#Notice" />
        <cc:requires
           rdf:resource="http://creativecommons.org/ns#Attribution" />
        <cc:permits
           rdf:resource="http://creativecommons.org/ns#DerivativeWorks" />
        <cc:requires
           rdf:resource="http://creativecommons.org/ns#ShareAlike" />
      </cc:License>
    </rdf:RDF>
  </metadata>
  <g
     id="layer1"
     inkscape:label="App Icon"
     inkscape:groupmode="layer"
     style="display:inline"
     transform="translate(8,-156)">
    <g
       inkscape:groupmode="layer"
       id="layer4"
       inkscape:label="template"
       style="display:inline"
       sodipodi:insensitive="true">
      <rect
         inkscape:label="0"
         y="172"
         x="9.2651362e-08"
         height="128"
         width="128"
         id="hicolor"
         style="display:inline;overflow:visible;visibility:visible;fill:#f0f0f0;fill-opacity:0;fill-rule:nonzero;stroke:none;stroke-width:0.5;marker:none;enable-background:accumulate" />
      <rect
         style="display:inline;overflow:visible;visibility:visible;fill:#f0f0f0;fill-opacity:0;fill-rule:nonzero;stroke:none;stroke-width:0.5;marker:none;enable-background:accumulate"
         id="symbolic"
         width="16"
         height="16"
         x="160"
         y="172"
         inkscape:label="0" />
    </g>
    <g
       inkscape:groupmode="layer"
       id="layer2"
       inkscape:label="baseplate"
       style="display:inline"
       sodipodi:insensitive="true">
      <g
         style="display:inline;fill:#000000;enable-background:new"
         transform="matrix(7.9911709,0,0,8.0036407,-167.7909,-4846.0776)"
         id="g12027"
         inkscape:export-xdpi="12"
         inkscape:export-ydpi="12" />
      <rect
         style="display:inline;overflow:visible;visibility:visible;fill:#f0f0f0;fill-opacity:1;fill-rule:nonzero;stroke:none;stroke-width:0.5;marker:none;enable-background:accumulate"
         id="128"
         width="128"
         height="128"
         x="9.2651362e-08"
         y="172"
         inkscape:label="0" />
      <g
         id="g883"
         style="fill:none;fill-opacity:0.25098;stroke:#a579b3;stroke-opacity:1"
         transform="translate(-24,24)" />
      <g
         id="g900"
         style="fill:none;fill-opacity:0.25098;stroke:#a579b3;stroke-opacity:1"
         transform="translate(-24,24)" />
      <rect
         inkscape:label=""
         y="172"
         x="160"
         height="16"
         width="16"
         id="16"
         style="display:inline;overflow:visible;visibility:visible;fill:#f0f0f0;fill-opacity:1;fill-rule:nonzero;stroke:none;stroke-width:0.5;marker:none;enable-background:accumulate" />
      <text
         xml:space="preserve"
         style="font-style:normal;font-variant:normal;font-weight:bold;font-stretch:normal;font-size:4px;line-height:125%;font-family:Cantarell;-inkscape-font-specification:'Cantarell, Bold';text-align:start;writing-mode:lr-tb;text-anchor:start;display:inline;fill:#000000;fill-opacity:1;stroke:none;stroke-width:0.332649;enable-background:new"
         x="0"
         y="167"
         id="text863"
         inkscape:label="icon-name"><tspan
           style="font-size:4px;stroke-width:0.332649"
           sodipodi:role="line"
           id="tspan861"
           x="0"
           y="167">Hicolor</tspan></text>
      <text
         inkscape:label="icon-name"
         id="text867"
         y="167"
         x="160"
         style="font-style:normal;font-variant:normal;font-weight:bold;font-stretch:normal;font-size:4px;line-height:125%;font-family:Cantarell;-inkscape-font-specification:'Cantarell, Bold';text-align:start;writing-mode:lr-tb;text-anchor:start;display:inline;fill:#000000;fill-opacity:1;stroke:none;stroke-width:0.332649;enable-background:new"
         xml:space="preserve"><tspan
           y="167"
           x="160"
           id="tspan865"
           sodipodi:role="line"
           style="font-size:4px;stroke-width:0.332649">Symbolic</tspan></text>
    </g>
    <g
       inkscape:groupmode="layer"
       id="layer9"
       inkscape:label="icons"
       style="display:inline" />
    <g
       inkscape:groupmode="layer"
       id="layer3"
       inkscape:label="grid"
       style="display:inline">
      <path
         inkscape:connector-curvature="0"
         id="path2900"
         d="M 2.6203015e-5,288.99999 H 128.00003"
         style="display:inline;fill:none;stroke:#62a0ea;stroke-width:2;stroke-linecap:butt;stroke-linejoin:miter;stroke-miterlimit:4;stroke-dasharray:none;stroke-opacity:1;enable-background:new" />
    </g>
    <path
       d="m 85,180 c 11.597659,0 21,9.40234 21,21 v 38 c 0,11.59766 -9.402341,21 -21,21 -11.597656,0 -21,-9.40234 -21,-21 v -38 c 0,-11.59766 9.402344,-21 21,-21 z m 0,0"
       fill="url(#b)"
       id="path55"
       style="fill:url(#b)" />
    <path
       d="m 106,199 c 0,11.59766 -9.402341,21 -21,21 -11.597656,0 -21,-9.40234 -21,-21 0,-11.59766 9.402344,-21 21,-21 11.597659,0 21,9.40234 21,21 z m 0,0"
       fill="#deddda"
       id="path56" />
    <path
       d="m 43,186 c 11.597656,0 21,9.40234 21,21 v 32 c 0,11.59766 -9.402344,21 -21,21 -11.597656,0 -21,-9.40234 -21,-21 v -32 c 0,-11.59766 9.402344,-21 21,-21 z m 0,0"
       fill="url(#c)"
       id="path57"
       style="fill:url(#c)" />
    <path
       d="m 22,207 v 16 c 0,11.63281 9.367188,21 21,21 11.632812,0 21,-9.36719 21,-21 v -16 c 0,11.63281 -9.367188,21 -21,21 -11.632812,0 -21,-9.36719 -21,-21 z m 0,0"
       fill="#f66151"
       id="path58"
       style="fill:url(#linearGradient45)" />
    <path
       d="m 106,199 c 0,11.59766 -9.402341,21 -21,21 -11.597656,0 -21,-9.40234 -21,-21 0,-11.59766 9.402344,-21 21,-21 11.597659,0 21,9.40234 21,21 z m 0,0"
       fill="url(#e)"
       id="path59"
       style="fill:url(#e)" />
    <path
       d="m 101,199 c 0,8.83594 -7.16406,16 -16,16 -8.83594,0 -16,-7.16406 -16,-16 0,-8.83594 7.16406,-16 16,-16 8.83594,0 16,7.16406 16,16 z m 0,0"
       fill="none"
       stroke="#9a9996"
       stroke-linecap="round"
       stroke-linejoin="round"
       stroke-opacity="0.435294"
       stroke-width="2"
       id="path60" />
    <path
       d="m 95,199 c 0,5.52344 -4.47656,10 -10,10 -5.52344,0 -10,-4.47656 -10,-10 0,-5.52344 4.47656,-10 10,-10 5.52344,0 10,4.47656 10,10 z m 0,0"
       fill="none"
       stroke="#9a9996"
       stroke-linecap="round"
       stroke-linejoin="round"
       stroke-opacity="0.435294"
       stroke-width="2"
       id="path61" />
    <path
       d="M 105.95313,197.66797 C 105.59375,208.98437 96.324219,217.98047 85,218 73.808594,217.9766 64.601562,209.17969 64.070312,198 c -0.03125,0.33203 -0.05469,0.66797 -0.07031,1 0,11.59766 9.402344,21 21,21 C 96.597659,220 106,210.59766 106,199 c 0,-0.44531 -0.0156,-0.88672 -0.0469,-1.33203 z m 0,0"
       fill="url(#g)"
       id="path62"
       style="fill:url(#g)" />
    <path
       d="m 85,176 c -11.597656,0 -21,9.40234 -21,21 0.01563,0.33203 0.03906,0.66797 0.07031,1 0.531252,-11.17969 9.738284,-19.97656 20.92969,-20 11.078129,0.004 20.25,8.60938 20.95313,19.66797 0.0195,-0.22266 0.0352,-0.44531 0.0469,-0.66797 0,-11.59766 -9.402341,-21 -21,-21 z m 0,0"
       fill="url(#h)"
       id="path63"
       style="fill:url(#h)" />
    <path
       d="m 85,212 c -11.597656,0 -21,9.40234 -21,21 v 38 c 0,11.59766 9.402344,21 21,21 11.597659,0 21,-9.40234 21,-21 v -38 c 0,-11.59766 -9.402341,-21 -21,-21 z m 0,0"
       fill="url(#i)"
       id="path64"
       style="fill:url(#i)" />
    <path
       d="m 43,176 c 9.390625,0 17,7.61328 17,17 v 6 c 0,9.39062 -7.609375,17 -17,17 -9.390625,0 -17,-7.60938 -17,-17 v -6 c 0,-9.38672 7.609375,-17 17,-17 z m 0,0"
       fill="#e01b24"
       id="path65" />
    <path
       d="m 43,218 c 11.597656,0 21,9.40234 21,21 v 32 c 0,11.59766 -9.402344,21 -21,21 -11.597656,0 -21,-9.40234 -21,-21 v -32 c 0,-11.59766 9.402344,-21 21,-21 z m 0,0"
       fill="url(#j)"
       id="path66"
       style="fill:url(#j)" />
    <path
       d="m 20,260 v 24 c 0,4.43359 3.566406,8 8,8 H 99.999999 C 104.43359,292 108,288.43359 108,284 v -24 c 0,4.43359 -3.56641,8 -8.000001,8 H 28 c -4.433594,0 -8,-3.56641 -8,-8 z m 0,0"
       fill="url(#k)"
       id="path67"
       style="fill:url(#k)" />
    <path
       d="m 49,274 h 30 c 2.76172,0 5,2.23828 5,5 0,2.76172 -2.23828,5 -5,5 H 49 c -2.761719,0 -5,-2.23828 -5,-5 0,-2.76172 2.238281,-5 5,-5 z m 0,0"
       fill="#986a44"
       id="path69" />
    <path
       d="m 49,274 c -2.769531,0 -5,2.23047 -5,5 0,0.16797 0.0078,0.33594 0.02734,0.5 C 44.273438,276.96875 46.398438,275 49,275 h 30 c 2.60156,0 4.72656,1.96875 4.97656,4.5 0.0156,-0.16406 0.0234,-0.33203 0.0234,-0.5 0,-2.76953 -2.23047,-5 -5,-5 z m 0,0"
       fill-opacity="0.094118"
       id="path70" />
    <path
       d="m 85,198 c 3.86719,0 7,3.13281 7,7 v 10 c 0,3.86719 -3.13281,7 -7,7 -3.86719,0 -7,-3.13281 -7,-7 v -10 c 0,-3.86719 3.13281,-7 7,-7 z m 0,0"
       fill="url(#l)"
       id="path71"
       style="fill:url(#l)" />
    <path
       d="m 92,205 c 0,3.86719 -3.13281,7 -7,7 -3.86719,0 -7,-3.13281 -7,-7 0,-3.86719 3.13281,-7 7,-7 3.86719,0 7,3.13281 7,7 z m 0,0"
       fill="url(#m)"
       id="path72"
       style="fill:url(#m)" />
    <path
       d="M 91.97266,204.39062 C 91.76563,208.09375 88.70703,210.99219 85,211 c -3.66406,-0.008 -6.70312,-2.84375 -6.96484,-6.5 -0.0195,0.16797 -0.0312,0.33203 -0.0352,0.5 0,3.86719 3.13281,7 7,7 3.86719,0 7,-3.13281 7,-7 0,-0.20313 -0.008,-0.40625 -0.0273,-0.60938 z m 0,0"
       fill="url(#n)"
       id="path73"
       style="fill:url(#n)" />
    <path
       d="m 64,232 v 10 c 0,11.63281 9.367188,21 21,21 11.632809,0 21,-9.36719 21,-21 v -10 c 0,11.63281 -9.367191,21 -21,21 -11.632812,0 -21,-9.36719 -21,-21 z m 0,0"
       fill="url(#o)"
       id="path74"
       style="fill:url(#o)" />
    <path
       d="m 64,239 c 0,11.59766 -9.402344,21 -21,21 -11.597656,0 -21,-9.40234 -21,-21 0,-11.59766 9.402344,-21 21,-21 11.597656,0 21,9.40234 21,21 z m 0,0"
       fill="url(#p)"
       id="path75"
       style="fill:url(#p)" />
    <path
       d="m 59,239 c 0,8.83594 -7.164062,16 -16,16 -8.835938,0 -16,-7.16406 -16,-16 0,-8.83594 7.164062,-16 16,-16 8.835938,0 16,7.16406 16,16 z m 0,0"
       fill="none"
       stroke="#9a9996"
       stroke-linecap="round"
       stroke-linejoin="round"
       stroke-opacity="0.435294"
       stroke-width="2"
       id="path76" />
    <path
       d="m 53,239 c 0,5.52344 -4.476562,10 -10,10 -5.523438,0 -10,-4.47656 -10,-10 0,-5.52344 4.476562,-10 10,-10 5.523438,0 10,4.47656 10,10 z m 0,0"
       fill="none"
       stroke="#9a9996"
       stroke-linecap="round"
       stroke-linejoin="round"
       stroke-opacity="0.435294"
       stroke-width="2"
       id="path77" />
    <path
       d="M 63.953125,237.66797 C 63.59375,248.98437 54.324219,257.98047 43,258 31.808594,257.9766 22.601562,249.17969 22.070312,238 c -0.03125,0.33203 -0.05469,0.66797 -0.07031,1 0,11.59766 9.402344,21 21,21 11.597656,0 21,-9.40234 21,-21 0,-0.44531 -0.01563,-0.88672 -0.04687,-1.33203 z m 0,0"
       fill="url(#q)"
       id="path78"
       style="fill:url(#q)" />
    <rect
       style="fill:url(#linearGradient14);stroke-width:4.00001;stroke-linecap:round;stroke-linejoin:round;stroke-opacity:0.436181"
       id="rect1"
       width="84"
       height="22"
       x="22"
       y="244" />
    <path
       d="m 43,216 c -11.597656,0 -21,9.40234 -21,21 0.01563,0.33203 0.03906,0.66797 0.07031,1 0.531252,-11.17969 9.738284,-19.97656 20.92969,-20 11.078125,0.004 20.25,8.60937 20.953125,19.66797 0.01953,-0.22266 0.03516,-0.44531 0.04687,-0.66797 0,-11.59766 -9.402344,-21 -21,-21 z m 0,0"
       fill="url(#r)"
       id="path79"
       style="fill:url(#r)" />
    <g
       clip-path="url(#s)"
       id="g81"
       transform="translate(-5e-7,172)">
      <g
         clip-path="url(#t)"
         id="g80">
        <path
           d="m 42,22 h 2 v 22 h -2 z m 0,0"
           fill="#ed333b"
           fill-opacity="0.478431"
           id="path80" />
      </g>
    </g>
    <g
       clip-path="url(#u)"
       id="g83"
       transform="translate(-5e-7,172)">
      <g
         clip-path="url(#v)"
         id="g82">
        <path
           d="m 46,22 h 2 v 22 h -2 z m 0,0"
           fill="#ed333b"
           fill-opacity="0.478431"
           id="path81" />
      </g>
    </g>
    <g
       clip-path="url(#w)"
       id="g85"
       transform="translate(-5e-7,172)">
      <g
         clip-path="url(#x)"
         id="g84">
        <path
           d="m 50,22 h 2 v 22 h -2 z m 0,0"
           fill="#ed333b"
           fill-opacity="0.478431"
           id="path83" />
      </g>
    </g>
    <g
       clip-path="url(#y)"
       id="g87"
       transform="translate(-5e-7,172)">
      <g
         clip-path="url(#z)"
         id="g86">
        <path
           d="m 54,22 h 2 v 22 h -2 z m 0,0"
           fill="#ed333b"
           fill-opacity="0.478431"
           id="path85" />
      </g>
    </g>
    <g
       clip-path="url(#A)"
       id="g89"
       transform="translate(-5e-7,172)">
      <g
         clip-path="url(#B)"
         id="g88">
        <path
           d="m 58,22 h 2 v 22 h -2 z m 0,0"
           fill="#ed333b"
           fill-opacity="0.478431"
           id="path87" />
      </g>
    </g>
    <g
       clip-path="url(#C)"
       id="g91"
       transform="translate(-5e-7,172)">
      <g
         clip-path="url(#D)"
         id="g90">
        <path
           d="m 26,22 h 2 v 22 h -2 z m 0,0"
           fill="#ed333b"
           fill-opacity="0.478431"
           id="path89" />
      </g>
    </g>
    <g
       clip-path="url(#E)"
       id="g93"
       transform="translate(-5e-7,172)">
      <g
         clip-path="url(#F)"
         id="g92">
        <path
           d="m 30,22 h 2 v 22 h -2 z m 0,0"
           fill="#ed333b"
           fill-opacity="0.478431"
           id="path91" />
      </g>
    </g>
    <g
       clip-path="url(#G)"
       id="g95"
       transform="translate(-5e-7,172)">
      <g
         clip-path="url(#H)"
         id="g94">
        <path
           d="m 34,22 h 2 v 22 h -2 z m 0,0"
           fill="#ed333b"
           fill-opacity="0.478431"
           id="path93" />
      </g>
    </g>
    <g
       clip-path="url(#I)"
       id="g97"
       transform="translate(-5e-7,172)">
      <g
         clip-path="url(#J)"
         id="g96">
        <path
           d="m 38,22 h 2 v 22 h -2 z m 0,0"
           fill="#ed333b"
           fill-opacity="0.478431"
           id="path95" />
      </g>
    </g>
    <path
       d="m 22,204.71094 c -1.242188,1.41015 -2,3.2539 -2,5.28906 v 50 c 0,4.43359 3.566406,8 8,8 H 99.999999 C 104.43359,268 108,264.43359 108,260 v -50 c 0,-2.03516 -0.75781,-3.87891 -2,-5.28906 V 260 c 0,3.32422 -2.67578,6 -6.000001,6 H 28 c -3.324219,0 -6,-2.67578 -6,-6 z m 0,0"
       fill="#d5b8a1"
       id="path68"
       style="fill:url(#linearGradient21)" />
    <path
       d="m 60,193 c 0,9.39062 -7.609375,17 -17,17 -9.390625,0 -17,-7.60938 -17,-17 0,-9.38672 7.609375,-17 17,-17 9.390625,0 17,7.61328 17,17 z m 0,0"
       fill="url(#K)"
       id="path97"
       style="fill:url(#K)" />
    <path
       d="M 59.984375,193.25 C 59.847656,202.53125 52.285156,209.99219 43,210 c -9.183594,-0.0156 -16.695312,-7.32031 -16.964844,-16.5 -0.01563,0.16797 -0.02734,0.33203 -0.03516,0.5 0,9.39062 7.609375,17 17,17 9.390625,0 17,-7.60938 17,-17 0,-0.25 -0.0078,-0.5 -0.01563,-0.75 z m 0,0"
       fill="#f66151"
       fill-opacity="0.52549"
       id="path98" />
    <path
       d="m 43,176 c -9.390625,0 -17,7.60938 -17,17 0.0078,0.16797 0.01953,0.33203 0.03516,0.5 C 26.304688,184.32031 33.816406,177.01563 43,177 c 9.097656,0 16.578125,7.16016 16.984375,16.25 0.0039,-0.0859 0.01172,-0.16797 0.01563,-0.25 0,-9.39062 -7.609375,-17 -17,-17 z m 0,0"
       fill="#ffffff"
       fill-opacity="0.14902"
       id="path99" />
    <g
       fill="#241f31"
       id="g4"
       transform="translate(160,172)">
      <path
         d="M 3,6 C 1.910156,6 1,6.910156 1,8 v 5 c 0,1.089844 0.910156,2 2,2 h 10 c 1.089844,0 2,-0.910156 2,-2 V 8 C 15,6.910156 14.089844,6 13,6 Z m 0,2 h 10 v 5 H 3 Z m 0,0"
         id="path1" />
      <path
         d="m 6.492188,9 c -0.550782,0 -1,0.449219 -1,1 0,0.550781 0.449218,1 1,1 h 3.015624 c 0.550782,0 1,-0.449219 1,-1 0,-0.550781 -0.449218,-1 -1,-1 z m 0,0"
         id="path2" />
      <path
         d="M 4,2 C 2.90625,2 2,2.90625 2,4 V 7 C 2,7.550781 2.449219,8 3,8 3.550781,8 4,7.550781 4,7 V 4 H 7 V 7 C 7,7.550781 7.449219,8 8,8 8.550781,8 9,7.550781 9,7 V 4 C 9,2.90625 8.09375,2 7,2 Z m 0,0"
         id="path3" />
      <path
         d="M 9,0 C 8.449219,0 8,0.449219 8,1 8,1.550781 8.449219,2 9,2 h 1 v 1 c 0,1.09375 0.90625,2 2,2 v 2 c 0,0.550781 0.449219,1 1,1 0.550781,0 1,-0.449219 1,-1 V 5 C 14,3.90625 13.09375,3 12,3 V 2 C 12,0.90625 11.09375,0 10,0 Z m 0,0"
         id="path4-3" />
    </g>
  </g>
</svg>
